<svg xmlns="http://www.w3.org/2000/svg" viewBox="-8738 -10438 168.2 59.5">
  <g id="Group_55" data-name="Group 55" transform="translate(-11691 1139)">
    <g id="Group_50" data-name="Group 50" transform="translate(2590 -11592)">
      <g id="Group_25" data-name="Group 25" transform="translate(363 15)">
        <g id="Group_23" data-name="Group 23">
          <g id="Group_21" data-name="Group 21">
            <path id="Path_132" data-name="Path 132" d="M144.9,33.9a1.6,1.6,0,0,1-1.1.4c-.7,0-1.1-.6-1.1-1.4V19.6h-5.3v2.9h2V33.9c0,2.2,1.2,3.4,3.5,3.4a4.318,4.318,0,0,0,2.7-.8Z"/>
            <path id="Path_133" data-name="Path 133" d="M75.2,29.9l-1.3,1.6v5.3H70.3V19.6h3.6v7.7l6-7.7h4.5l-6.7,8.1,7.2,9.2H80.4Z"/>
            <path id="Path_134" data-name="Path 134" d="M83.9,30.6a6.5,6.5,0,1,1,13,0,6.5,6.5,0,1,1-13,0Zm9.7,0c0-1.9-1.1-3.6-3.2-3.6s-3.1,1.7-3.1,3.6c0,2,1.1,3.7,3.1,3.7S93.6,32.5,93.6,30.6Z"/>
            <path id="Path_135" data-name="Path 135" d="M107.3,29.3A2.018,2.018,0,0,0,105,27a3.292,3.292,0,0,0-2.8,1.5v8.4H99V24.3h3.2V26a5.467,5.467,0,0,1,4.3-1.9,3.633,3.633,0,0,1,4,4v8.8h-3.2Z"/>
            <path id="Path_136" data-name="Path 136" d="M113.7,32.9a6.7,6.7,0,0,0,4.3,1.7c1.4,0,2.1-.5,2.1-1.3,0-.9-1.1-1.2-2.5-1.5-2.1-.4-4.8-.9-4.8-3.9,0-2.1,1.8-3.9,5-3.9a7.426,7.426,0,0,1,4.9,1.7L121.4,28a5.012,5.012,0,0,0-3.6-1.5c-1.2,0-1.9.4-1.9,1.2s1,1.1,2.3,1.3c2.1.4,4.9,1,4.9,4.1,0,2.3-1.9,4-5.3,4a8.333,8.333,0,0,1-5.5-1.9Z"/>
            <path id="Path_137" data-name="Path 137" d="M133.1,35.3a5.467,5.467,0,0,1-4.3,1.9c-2.7,0-4-1.5-4-3.9V24.4H128V32a2.018,2.018,0,0,0,2.3,2.3,3.81,3.81,0,0,0,2.8-1.4V24.4h3.2V36.9h-3.2Z"/>
            <path id="Path_138" data-name="Path 138" d="M146.6,33.7V27.2h-2V24.3h2V20.9h3.3v3.4h2.5v2.9h-2.5v5.7c0,.8.4,1.4,1.1,1.4a1.6,1.6,0,0,0,1.1-.4l.7,2.5a4.1,4.1,0,0,1-2.7.8A3.163,3.163,0,0,1,146.6,33.7Z"/>
          </g>
          <g id="Group_22" data-name="Group 22">
            <path id="Path_139" data-name="Path 139" d="M70.2,41.8h3.2v6.4a4.6,4.6,0,0,1,3.8-1.9c3.1,0,5.4,2.5,5.4,6.6,0,4.2-2.3,6.6-5.4,6.6a4.881,4.881,0,0,1-3.8-1.9v1.6H70.2Zm6,14.6c1.9,0,3.1-1.5,3.1-3.6,0-2.2-1.2-3.7-3.1-3.7a3.607,3.607,0,0,0-2.8,1.5V55A3.82,3.82,0,0,0,76.2,56.4Z"/>
            <path id="Path_140" data-name="Path 140" d="M92.9,57.5a5.467,5.467,0,0,1-4.3,1.9c-2.7,0-4-1.5-4-3.9V46.6h3.2v7.6a2.018,2.018,0,0,0,2.3,2.3,3.81,3.81,0,0,0,2.8-1.4V46.6h3.2V59.1H92.9Z"/>
            <path id="Path_141" data-name="Path 141" d="M104,54.2l-1.5,1.6V59H99.3V41.8h3.2V52.1l4.7-5.6h4l-4.9,5.7,5,6.8h-4Z"/>
            <path id="Path_142" data-name="Path 142" d="M117.5,46.2c3.7,0,6.2,2.8,6.2,6.9v.7h-9.1a3.332,3.332,0,0,0,3.5,2.9,5.547,5.547,0,0,0,3.3-1.2l1.4,2.1a7.329,7.329,0,0,1-5.1,1.7,6.551,6.551,0,0,1-.2-13.1Zm-3,5.4h6.1a2.9,2.9,0,0,0-3-2.8A3,3,0,0,0,114.5,51.6Z"/>
            <path id="Path_143" data-name="Path 143" d="M140.8,56.1a1.6,1.6,0,0,1-1.1.4c-.7,0-1.1-.6-1.1-1.4V49.4h2.5V46.5h-2.5V43.1h-3.3v3.4H130V43.1h-3.3v3.4h-2v2.9h2V56c0,2.2,1.2,3.4,3.5,3.4a4.318,4.318,0,0,0,2.7-.8l-.7-2.5a1.6,1.6,0,0,1-1.1.4c-.7,0-1.1-.6-1.1-1.4V49.4h5.3V56c0,2.2,1.2,3.4,3.5,3.4a4.318,4.318,0,0,0,2.7-.8Z"/>
            <path id="Path_144" data-name="Path 144" d="M148.8,46.2c3.7,0,6.2,2.8,6.2,6.9v.7h-9.1a3.332,3.332,0,0,0,3.5,2.9,5.547,5.547,0,0,0,3.3-1.2l1.4,2.1a7.329,7.329,0,0,1-5.1,1.7,6.551,6.551,0,0,1-.2-13.1Zm-3,5.4h6.1a2.9,2.9,0,0,0-3-2.8A3,3,0,0,0,145.8,51.6Z"/>
            <path id="Path_145" data-name="Path 145" d="M165,51.5a2.018,2.018,0,0,0-2.3-2.3,3.292,3.292,0,0,0-2.8,1.5v8.4h-3.2V46.5h3.2v1.6a5.467,5.467,0,0,1,4.3-1.9,3.633,3.633,0,0,1,4,4V59H165Z"/>
          </g>
        </g>
        <g id="Group_24" data-name="Group 24">
          <path id="Path_146" data-name="Path 146" class="cls-1" d="M7.9,40.5l4-22.6,8.7-3.1V5.6L0,20.5,2.8,43.3,15.2,59.1h0Z"/>
          <path id="Path_147" data-name="Path 147" class="cls-1" d="M35.7,9.4,29.5,1.5V11.6Z"/>
          <path id="Path_148" data-name="Path 148" class="cls-2" d="M50.3,19.4l-1.1-2.9-2.7,2.9Z"/>
          <path id="Path_149" data-name="Path 149" class="cls-2" d="M15.2,59.1Z"/>
          <path id="Path_150" data-name="Path 150" class="cls-2" d="M20.6,30.2V14.8l-8.7,3.1-4,22.6,7.3,18.6V39.2Z"/>
          <path id="Path_151" data-name="Path 151" class="cls-2" d="M45,6,35.7,9.4l-6.2,2.2v7.8h5l5-5.2,6.2-6.6Z"/>
          <rect id="Rectangle_66" data-name="Rectangle 66" class="cls-3" transform="translate(15.2 59.1)"/>
          <path id="Path_152" data-name="Path 152" class="cls-3" d="M15.2,59.1Z"/>
          <path id="Path_153" data-name="Path 153" class="cls-3" d="M62.6,19.4H46.5l-4.7,5,.3,2.4,8.1,9.9,8,9.9,4.4-7.4Z"/>
          <path id="Path_154" data-name="Path 154" class="cls-3" d="M47.6,47.4,41.5,40l-6.9-8.4-5.1,5V59.1H50.7l2.7-4.6Z"/>
          <path id="Path_155" data-name="Path 155" class="cls-3" d="M34.5,19.4h-5v5.3Z"/>
          <path id="Path_156" data-name="Path 156" class="cls-3" d="M42.1,26.8l-.3-2.4-.9.9Z"/>
          <path id="Path_157" data-name="Path 157" class="cls-3" d="M15.2,39.2V59.1h5.4V30.2Z"/>
          <path id="Path_158" data-name="Path 158" class="cls-4" d="M50.2,36.7l-8.1-9.9-1.2-1.5.9-.9,4.7-5,2.7-2.9L45.7,7.6l-6.2,6.6-5,5.2-5,5.3V1.5L28.3,0,20.6,5.6V59.1h8.9V36.6l5.1-5L41.5,40l6.1,7.4,5.8,7.1,4.8-7.9Z"/>
        </g>
      </g>
    </g>
  </g>
</svg>
